// Jest Snapshot v1, https://goo.gl/fbAQLP

exports[`Button component renders correctly 1`] = `
<button
  className="btn"
  onClick={[Function]}
  style={
    Object {
      "backgroundColor": "blue",
      "borderColor": "blue",
    }
  }
>
  Click me
</button>
`;
